Data Science Dashboard
…
  sample_n(2000) %>% 
  janitor::clean_names() %>% 
   separate(date, into = c("year", "month", "day")) %>% 
  mutate(year = as.integer(year), month = as.integer(month), day = as.integer(day)) %>% 
  mutate(month = month.name[as.integer(month)]) %>% 
  mutate(tmin= as.numeric(tmin)) %>% 
  mutate(tmin = as.numeric(tmin / 10)) %>%
  mutate(tmax= as.numeric(tmax)) %>% 
  mutate(tmax = as.numeric(tmax / 10)) %>%
  mutate(prcp= as.numeric(prcp)) %>% 
  mutate(prcp = as.numeric(prcp / 10)) %>% 
 select(id, year, month, day, prcp, snow, snwd, tmax, tmin)
ny_noaa_tidy2

## # A tibble: 2,000 × 9
##    id           year month       day  prcp  snow  snwd  tmax  tmin
##    <chr>       <int> <chr>     <int> <dbl> <int> <int> <dbl> <dbl>
##  1 USC00308946  2009 February      1   0      NA    NA  10    -2.2
##  2 USC00303464  1990 November     11  17       0     0  16.7   6.1
##  3 US1NYER0058  2010 September    15  NA      NA    NA  NA    NA  
##  4 USR0000NSCH  2004 April        27  NA      NA    NA  14.4   0  
##  5 USC00303365  1994 March        22  18.5    NA    NA  NA    NA  
##  6 USC00305113  1985 April         9   0.8     8     0   6.1  -7.8
##  7 US1NYMD0005  2010 November      8   0       0    NA  NA    NA  
##  8 USC00301387  2008 February     22  NA      NA    NA  NA    NA  
##  9 USC00300608  2004 October      24   0       0     0  NA    NA  
## 10 USC00304912  2004 September    22   0       0     0  21.7   7.8
## # … with 1,990 more rows
…
